<svg width="36" height="37" viewBox="0 0 36 37" fill="none" xmlns="http://www.w3.org/2000/svg">
<g clip-path="url(#clip0)">
<path d="M34.5001 18.5C34.5001 19.625 33.8701 20.615 32.9551 21.125L25.1551 25.4601L18.5551 18.5L25.1551 11.54L32.9551 15.875C33.8701 16.385 34.5001 17.375 34.5001 18.5Z" fill="#FFC107"/>
<path d="M18.555 18.5L2.355 35.585C1.815 35.045 1.5 34.31 1.5 33.5V3.50004C1.5 2.69004 1.815 1.95504 2.355 1.41504L18.555 18.5Z" fill="#03A9F4"/>
<path d="M18.555 18.5L25.155 25.46C5.39548 36.2975 4.56748 37.9205 2.35498 35.585L18.555 18.5Z" fill="#F44336"/>
<path d="M25.155 11.54L18.555 18.5L2.35498 1.41495C3.28198 0.435454 4.76848 0.220954 5.95498 0.874954L25.155 11.54Z" fill="#4CAF50"/>
</g>
<defs>
<clipPath id="clip0">
<rect width="36" height="36" fill="white" transform="translate(0 0.5)"/>
</clipPath>
</defs>
</svg>
